{
	"sapBrandColor": "#ff1100",
	"sapHighlightColor": "#ff1100",
	"sapBaseColor": "#808080",
	"sapShellColor": "transparent",
	"sapBackgroundColor": "#fff",
	"sapTextColor": "#000",
	"sapLinkColor": "#00679e",
	"sapCompanyLogo": "url('/sap/public/bc/themes/~client-100/~cache-1430447644573/Base/baseLib/custom_holcim_mobile/img/misc/sapCompanyLogo.png')",
	"sapBackgroundImage": "none",
	"sapBackgroundImageOpacity": "1.0",
	"sapBackgroundImageRepeat": "true",
	"sapSelectedColor": "#ff1100",
	"sapActiveColor": "#ff1100",
	"sapHighlightTextColor": "#fff",
	"sapTitleColor": "#333",
	"sapNegativeColor": "#e52929",
	"sapCriticalColor": "#f0ab00",
	"sapPositiveColor": "#008a3b",
	"sapNeutralColor": "#007cc0",
	"sapContent_LabelColor": "#444",
	"sapContent_DisabledTextColor": "#ccc",
	"sapContent_ForegroundColor": "#c5c5c5",
	"sapContent_ForegroundBorderColor": "#a6a6a6",
	"sapContent_ForegroundTextColor": "#000",
	"sapShell_Background": "#fff",
	"sapShell_BorderColor": "#5c5c5c",
	"sapShell_TextColor": "#000",
	"sapButton_Background": "#f7f7f7",
	"sapButton_BorderColor": "#bfbfbf",
	"sapButton_TextColor": "#333",
	"sapButton_Disabled_Background": "#f7f7f7",
	"sapButton_Disabled_BorderColor": "#bfbfbf",
	"sapButton_Disabled_TextColor": "#ccc",
	"sapButton_Hover_Background": "#eaeaea",
	"sapButton_Hover_BorderColor": "#bfbfbf",
	"sapButton_Hover_TextColor": "#333",
	"sapButton_Emphasized_Background": "#ff1100",
	"sapButton_Emphasized_BorderColor": "#e60f00",
	"sapButton_Emphasized_TextColor": "#fff",
	"sapButton_Reject_Background": "#cc1919",
	"sapButton_Accept_Background": "#007833",
	"sapField_Background": "#fff",
	"sapField_BorderColor": "#bfbfbf",
	"sapField_HelpBackground": "#fff",
	"sapField_Hover_Background": "#fff",
	"sapField_Hover_BorderColor": "#ff1100",
	"sapField_Hover_HelpBackground": "#ff1100",
	"sapField_Focus_Background": "#fff",
	"sapField_Focus_BorderColor": "#ff1100",
	"sapField_Focus_HelpBackground": "#fff",
	"sapField_ReadOnly_Background": "transparent",
	"sapField_ReadOnly_BorderColor": "transparent",
	"sapField_ReadOnly_HelpBackground": "transparent",
	"sapField_Disabled_Background": "#fbfbfb",
	"sapField_Disabled_BorderColor": "#dbdbdb",
	"sapField_Disabled_HelpBackground": "#fbfbfb",
	"sapField_RequiredColor": "#ff1100",
	"sapField_InvalidColor": "#e52929",
	"sapField_InvalidBackground": "#fad4d4",
	"sapField_WarningColor": "#f0ab00",
	"sapField_WarningBackground": "#fceecc",
	"sapField_SuccessColor": "#008a3b",
	"sapField_SuccessBackground": "#cce8d8",
	"sapGroup_TitleBackground": "transparent",
	"sapGroup_TitleBorderColor": "transparent",
	"sapGroup_TitleTextColor": "#333",
	"sapGroup_ContentBackground": "#fff",
	"sapGroup_ContentBorderColor": "rgba(0,0,0,0)",
	"sapGroup_FooterBackground": "transparent",
	"sapToolbar_Background": "#fff",
	"sapToolbar_SeparatorColor": "#c2c2c2",
	"sapList_HeaderBackground": "#e5e5e5",
	"sapList_HeaderBorderColor": "#ccc",
	"sapList_HeaderTextColor": "#333",
	"sapList_BorderColor": "#ddd",
	"sapList_HighlightColor": "#ff1100",
	"sapList_SelectionBackgroundColor": "#ffe7e6",
	"sapList_Hover_Background": "#ff1100",
	"sapScrollBar_FaceColor": "#e6e6e6",
	"sapScrollBar_TrackColor": "#f8f8f8",
	"sapScrollBar_BorderColor": "#e6e6e6",
	"sapScrollBar_SymbolColor": "#f8f8f8",
	"sapUiBaseColor": "#808080",
	"sapUiContentDisabledTextColor": "#ccc",
	"sapUiContentForegroundBorderColor": "#a6a6a6",
	"sapUiButtonBackground": "#f7f7f7",
	"sapUiButtonBorderColor": "#bfbfbf",
	"sapUiButtonTextColor": "#333",
	"sapUiButtonDisabledBackground": "#f7f7f7",
	"sapUiButtonDisabledBorderColor": "#bfbfbf",
	"sapUiButtonDisabledTextColor": "#ccc",
	"sapUiButtonHoverBackground": "#eaeaea",
	"sapUiButtonHoverBorderColor": "#bfbfbf",
	"sapUiButtonHoverTextColor": "#333",
	"sapUiButtonRejectBackground": "#cc1919",
	"sapUiButtonAcceptBackground": "#007833",
	"sapUiFieldBackground": "#fff",
	"sapUiFieldBorderColor": "#bfbfbf",
	"sapUiFieldHelpBackground": "#fff",
	"sapUiFieldHoverBackground": "#fff",
	"sapUiFieldHoverBorderColor": "#ff1100",
	"sapUiFieldHoverHelpBackground": "#ff1100",
	"sapUiFieldFocusBackground": "#fff",
	"sapUiFieldFocusBorderColor": "#ff1100",
	"sapUiFieldFocusHelpBackground": "#fff",
	"sapUiFieldReadOnlyBackground": "transparent",
	"sapUiFieldReadOnlyBorderColor": "transparent",
	"sapUiFieldReadOnlyHelpBackground": "transparent",
	"sapUiFieldDisabledBackground": "#fbfbfb",
	"sapUiFieldDisabledBorderColor": "#dbdbdb",
	"sapUiFieldDisabledHelpBackground": "#fbfbfb",
	"sapUiFieldRequiredColor": "#ff1100",
	"sapUiFieldInvalidColor": "#e52929",
	"sapUiFieldInvalidBackground": "#fad4d4",
	"sapUiFieldWarningColor": "#f0ab00",
	"sapUiFieldWarningBackground": "#fceecc",
	"sapUiFieldSuccessColor": "#008a3b",
	"sapUiFieldSuccessBackground": "#cce8d8",
	"sapUiListHeaderBorderColor": "#ccc",
	"sapUiListHighlightColor": "#ff1100",
	"sapUiListHoverBackground": "#ff1100",
	"sapUiListSelectionBackgroundColor": "#ffe7e6",
	"sapUiBrand": "#ff1100",
	"sapUiHighlight": "#ff1100",
	"sapUiSelected": "#ff1100",
	"sapUiActive": "#ff1100",
	"sapUiPurple": "#ab218e",
	"sapUiOrange": "#f27020",
	"sapUiGreen": "#008a3b",
	"sapUiBlue": "#007cc0",
	"sapUiRed": "#e52929",
	"sapUiYellow": "#f0ab00",
	"sapUiBase": "#808080",
	"sapUiBaseBG": "#fff",
	"sapUiBaseBorder": "#808080",
	"sapUiBaseText": "#000",
	"sapUiBaseLine": "#808080",
	"sapUiWhite": "#fff",
	"sapUiWhiteBG": "#fff",
	"sapUiExtraLightBG": "#f2f2f2",
	"sapUiLightBG": "#e5e5e5",
	"sapUiMediumBG": "#ddd",
	"sapUiDarkBG": "#777",
	"sapUiDeepBG": "black",
	"sapUiBlackBG": "#000000",
	"sapUiHoverBG": "#ffe7e6",
	"sapUiMediumAltBG": "#ccbcb8",
	"sapUiDarkAltBG": "#787271",
	"sapUiButtonStandardBG": "#f7f7f7",
	"sapUiButtonEmphasizedBG": "#ff1100",
	"sapUiButtonNegativeBG": "red",
	"sapUiButtonPositiveBG": "green",
	"sapUiErrorBG": "#fbdfdf",
	"sapUiWarningBG": "#fffcb5",
	"sapUiReadOnlyBG": "grey",
	"sapUiExtraLightText": "#707070",
	"sapUiLightText": "#666",
	"sapUiMediumText": "#444",
	"sapUiDarkText": "#333",
	"sapUiDeepText": "black",
	"sapUiText": "#000",
	"sapUiTextInverted": "#fff",
	"sapUiLink": "#00679e",
	"sapUiLinkInverted": "#1bb1ff",
	"sapUiLinkVisited": "#00679e",
	"sapUiLinkActive": "#00679e",
	"sapUiLinkHover": "#00679e",
	"sapUiNegativeText": "#cc1919",
	"sapUiPositiveText": "#007833",
	"sapUiWhiteBorder": "#fff",
	"sapUiExtraLightBorder": "#e5e5e5",
	"sapUiLightBorder": "#ddd",
	"sapUiMediumBorder": "#cdcdcd",
	"sapUiDarkBorder": "#c0c0c0",
	"sapUiBlackBorder": "#000",
	"sapUiErrorBorder": "#e52929",
	"sapUiWarningBorder": "#f0ab00",
	"sapUiLightLine": "#cdcdcd",
	"sapUiMediumLine": "#9a9a9a",
	"sapUiEmphasizedLine": "#ff1100",
	"sapUiDarkLine": "#343434",
	"sapUiTableRowBG": "#fff",
	"sapUiTableRowAlternatingBG": "#eff7fb",
	"sapUiTableRowSelectionBG": "#d1e9f4",
	"sapUiTableRowSelectionReadOnlyBG": "#c9e1ed",
	"sapUiTableRowHoverBG": "#ffe7e6",
	"sapUiListBG": "#fff",
	"sapUiTextColor": "green",
	"sapUiTextTitleColor": "green",
	"sapUiTextSelectionColor": "green",
	"sapUiTextDisabled": "#999",
	"sapUiTextTitle": "#333",
	"sapUiTextSelection": "#fff",
	"sapUiTextfieldBackground": "#fff",
	"sapUiLineHeight": "18px",
	"sapUiFontFamily": "Arial, Helvetica, sans-serif",
	"sapUiFontMonospaceFamily": "Lucida Console",
	"sapUiFontSize": "16px",
	"sapUiFontLargeSize": "13px",
	"sapUiFontSmallSize": "11px",
	"sapUiFontHeader1Size": "26px",
	"sapUiFontHeader2Size": "20px",
	"sapUiFontHeader3Size": "18px",
	"sapUiFontHeader4Size": "16px",
	"sapUiFontHeader5Size": "14px",
	"sapUiFontHeader6Size": "13px",
	"sapUiUx3ShellBackgroundColor": "#f2f2f2",
	"sapUiUx3ShellHoverColor": "#777",
	"sapUiUx3ShellSideBarBaseWidth": "40px",
	"sapUiUx3ShellPaneOverflowButtonHeight": "120px",
	"sapUiUx3ShellToolPaletteIconFontColor": "#8899aa",
	"sapUiUx3ExactLstExpandOffset": "-1 -2",
	"sapUiUx3ExactLstRootExpandOffset": "0 3",
	"sapUiUx3ExactLstCollapseWidth": "24px",
	"sapUiUx3ExactLstHeaderHeight": "25px",
	"sapUiUx3ExactLstContentTop": "25px",
	"sapUiNotificationBarBG": "rgba(51,51,51,0.98)",
	"sapUiNotificationBarBG_IE": "#444",
	"sapUiNotifierHoverColor": "#ff1100",
	"sapUiNotifierSeparator": "#000",
	"sapUiNotificationText": "#fff",
	"sapUiNotificationTimestamp": "#ababab",
	"sapUiNotificationBarCalloutBorder": "rgba(68,68,68,0)",
	"sapUiNotificationBarCalloutBorder_IE": "#444",
	"sapUiNotificationBarCalloutArr": "rgba(51,51,51,0.98)",
	"sapUiNotificationBarHeight": "40px",
	"sapUiNotificationBarHeightMinimized": "0px",
	"sapUiNotificationBarHeightMaximized": "40%",
	"sapUiNotifierWidth": "40px",
	"sapUiNotifierSeparatorWidth": "1px",
	"sapUiUx3ToolPopupInverted": "false",
	"sapUiUx3ToolPopupArrowWidth": "13px",
	"sapUiUx3ToolPopupArrowHeight": "20px",
	"sapUiUx3ToolPopupArrowRightMarginCorrection": "-1px",
	"sapUiUx3ToolPopupArrowRightMarginCorrectionInverted": "-7px",
	"sapUiUx3TPPaddingBottom": "50px",
	"sapUiButtonActiveBorderColor": "#bfbfbf",
	"sapUiButtonActiveBackground": "#ff1100",
	"sapUiButtonEmphasizedBorderColor": "#e60f00",
	"sapUiButtonEmphasizedBackground": "#ff1100",
	"sapUiButtonEmphasizedDisabledBorderColor": "#e60f00",
	"sapUiButtonEmphasizedDisabledBackground": "#ff1100",
	"sapUiButtonEmphasizedHoverBorderColor": "#e60f00",
	"sapUiButtonEmphasizedHoverBackground": "#e60f00",
	"sapUiButtonEmphasizedActiveBorderColor": "#cc0e00",
	"sapUiButtonEmphasizedActiveBackground": "#cc0e00",
	"sapUiButtonAcceptBorderColor": "#005f28",
	"sapUiButtonAcceptDisabledBorderColor": "#005f28",
	"sapUiButtonAcceptDisabledBackground": "#007833",
	"sapUiButtonAcceptHoverBorderColor": "#005f28",
	"sapUiButtonAcceptHoverBackground": "#005f28",
	"sapUiButtonAcceptActiveBorderColor": "#00451d",
	"sapUiButtonAcceptActiveBackground": "#00451d",
	"sapUiButtonRejectBorderColor": "#b51616",
	"sapUiButtonRejectDisabledBorderColor": "#b51616",
	"sapUiButtonRejectDisabledBackground": "#cc1919",
	"sapUiButtonRejectHoverBorderColor": "#b51616",
	"sapUiButtonRejectHoverBackground": "#b51616",
	"sapUiButtonRejectActiveBorderColor": "#9f1313",
	"sapUiButtonRejectActiveBackground": "#9f1313",
	"sapUiButtonLiteBackground": "transparent",
	"sapUiToggleButtonPressedDisabledBackground": "#ff1100",
	"sapUiToggleButtonPressedBackground": "#ff1100",
	"sapUiPositiveBG": "#007833",
	"sapUiShadowTint": "#000",
	"sapUiShadow": "0px 4px 17px rgba(0, 0, 0, 0.4)",
	"sapUiThemeDesignerCustomCss": "false",
	"sapBackgroundColorDefault": "#f2f2f2",
	"sapBackgroundGradientBaseColor": "#fff",
	"sapFontFamily": "Arial, Helvetica, sans-serif",
	"sapFontSize": "0.75em",
	"sapContent_BackgroundGradientStartColor": "#fff",
	"sapContent_BackgroundGradientMiddleColor": "#fff",
	"sapContent_BackgroundGradientEndColor": "#f2f2f2",
	"sapContent_BackgroundGradientMixedStartColor": "#fff",
	"sapContent_BackgroundGradientMixedMiddleColor": "#fff",
	"sapContent_BackgroundGradientMixedEndColor": "#fdfdfd",
	"sapContent_LineHeight": "1.3",
	"sapContent_ElementHeight": "1.37em",
	"sapContent_ElementHeight_PX": "22px",
	"sapContent_IconHeight": "16px",
	"sapContent_MonospaceFontFamily": "lucida console, monospace",
	"sapContent_ContrastTextTreshold": "0.65",
	"sapContent_ContrastTextColor": "#fff",
	"sapButton_BorderWitdh": "1px",
	"sapButton_BorderCornerRadius": "0",
	"sapField_BorderWitdh": "1px",
	"sapField_BorderCornerRadius": "0",
	"sapGroup_Title_FontSize": "1.0em",
	"sapGroup_BorderWidth": "1px",
	"sapGroup_BorderCornerRadius": "0",
	"sapList_BorderWidth": "1px",
	"sapScrollBar_Dimension": "16px",
	"sapScrollBar_Hover_FaceColor": "#dedede",
	"sapChart_OrderedColor_1": "#5cbae6",
	"sapChart_OrderedColor_2": "#b6d957",
	"sapChart_OrderedColor_3": "#fac364",
	"sapChart_OrderedColor_4": "#8cd3ff",
	"sapChart_OrderedColor_5": "#d998cb",
	"sapChart_OrderedColor_6": "#f2d249",
	"sapChart_OrderedColor_7": "#93b9c6",
	"sapChart_OrderedColor_8": "#ccc5a8",
	"sapChart_OrderedColor_9": "#52bacc",
	"sapChart_OrderedColor_10": "#dbdb46",
	"sapChart_OrderedColor_11": "#98aafb",
	"sapChart_Bad": "#d32030",
	"sapChart_Critical": "#e17b24",
	"sapChart_Good": "#61a656",
	"sapChart_Neutral": "#848f94",
	"sapChart_Sequence_1": "#27a3dd",
	"sapChart_Sequence_2": "#9dc62d",
	"sapChart_Sequence_3": "#f8ac29",
	"sapChart_Sequence_Neutral": "#848f94",
	"sapUiContentLabelColor": "#444",
	"sapUiContentForegroundColor": "#c5c5c5",
	"sapUiContentForegroundTextColor": "#000",
	"sapUiShellBackground": "#fff",
	"sapUiShellBorderColor": "#5c5c5c",
	"sapUiShellTextColor": "#000",
	"sapUiButtonEmphasizedTextColor": "#fff",
	"sapUiGroupTitleBackground": "transparent",
	"sapUiGroupTitleBorderColor": "transparent",
	"sapUiGroupTitleTextColor": "#333",
	"sapUiGroupContentBackground": "#fff",
	"sapUiGroupContentBorderColor": "rgba(0,0,0,0)",
	"sapUiGroupFooterBackground": "transparent",
	"sapUiToolbarBackground": "#fff",
	"sapUiToolbarSeparatorColor": "#c2c2c2",
	"sapUiListHeaderBackground": "#e5e5e5",
	"sapUiListHeaderTextColor": "#333",
	"sapUiListBorderColor": "#ddd",
	"sapUiScrollBarFaceColor": "#e6e6e6",
	"sapUiScrollBarTrackColor": "#f8f8f8",
	"sapUiScrollBarBorderColor": "#e6e6e6",
	"sapUiScrollBarSymbolColor": "#f8f8f8",
	"sapUiScrollBarHoverFaceColor": "#dedede",
	"sapUiChart1": "#5cbae6",
	"sapUiChart2": "#b6d957",
	"sapUiChart3": "#fac364",
	"sapUiChart4": "#8cd3ff",
	"sapUiChart5": "#d998cb",
	"sapUiChart6": "#f2d249",
	"sapUiChart7": "#93b9c6",
	"sapUiChart8": "#ccc5a8",
	"sapUiChart9": "#52bacc",
	"sapUiChart10": "#dbdb46",
	"sapUiChart11": "#98aafb",
	"sapUiChartBad": "#d32030",
	"sapUiChartCritical": "#e17b24",
	"sapUiChartGood": "#61a656",
	"sapUiChartNeutral": "#848f94",
	"sapUiChartSequence1": "#27a3dd",
	"sapUiChartSequence2": "#9dc62d",
	"sapUiChartSequence3": "#f8ac29",
	"sapUiChartSequenceNeutral": "#848f94",
	"sapUiBlack": "#000",
	"sapUiNegative": "#cc1919",
	"sapUiCritical": "#d14900",
	"sapUiPositive": "#007833",
	"sapUiNeutral": "#007cc0",
	"sapUiAccent1": "#f0ab00",
	"sapUiAccent2": "#f27020",
	"sapUiAccent3": "#e52929",
	"sapUiAccent4": "#ab218e",
	"sapUiAccent5": "#007cc0",
	"sapUiAccent6": "#008a3b",
	"sapUiAccent7": "#004990",
	"sapUiAccent8": "#009de0",
	"sapUiSearchHighlight": "#fffcb5",
	"sapUiActiveBG": "#ffe7e6",
	"sapUiFocus": "#c20d00",
	"sapUiInvertedFocus": "#fff",
	"sapUiUx3ShellHeaderColor": "transparent",
	"sapUiHighlightTextColor": "#fff",
	"sapUiLightestBG": "#fff",
	"sapUiExtraDarkBG": "#333",
	"sapUiDarkestBG": "#000",
	"sapUiFooterBG": "rgba(54,62,67,0.96)",
	"sapUiFooterOnDesktopBG": "rgba(54,62,67,0.96)",
	"sapUiExtraDarkText": "#222",
	"sapUiStandardText": "#000",
	"sapUiHighlightText": "#fff",
	"sapUiHeaderText": "#333",
	"sapUiCriticalText": "#d14900",
	"sapUiLightestBorder": "#fff",
	"sapUiExtraDarkBorder": "#9a9a9a",
	"sapUiDarkestBorder": "#000",
	"sapUiSuccessBorder": "#008a3b",
	"sapUiSuccessBG": "#e0f1e7",
	"sapUiNeutralBG": "#e6f2f9",
	"sapUiDarkShadowTint": "#000",
	"sapUiLightShadowTint": "#fff",
	"sapUiInvertedElement": "#fff",
	"sapUiElement": "#666",
	"sapUiNegativeElement": "#cc1919",
	"sapUiCriticalElement": "#d14900",
	"sapUiPositiveElement": "#007833",
	"sapUiNeutralElement": "#007cc0",
	"sapUiLightestBGHover": "#f0f0f0",
	"sapUiActiveBGHover": "#ffd8d7",
	"sapUiFontCondensedFamily": "'Arial Narrow', HelveticaNeue-CondensedBold, Arial, sans-serif",
	"sapUiFontHeaderFamily": "Arial, Helvetica, sans-serif",
	"sapUiFontHeaderWeight": "normal",
	"sapMFontHeader1Size": "1.750rem",
	"sapMFontHeader2Size": "1.500rem",
	"sapMFontHeader3Size": "1.250rem",
	"sapMFontHeader4Size": "1.125rem",
	"sapMFontHeader5Size": "1rem",
	"sapMFontHeader6Size": "0.875rem",
	"sapMFontSmallSize": "0.75rem",
	"sapMFontMediumSize": "0.875rem",
	"sapMFontLargeSize": "1rem",
	"sapUiMarginSmall": "1rem",
	"sapUiMarginMedium": "2rem",
	"sapUiMarginLarge": "3rem",
	"sapUiTranslucentBGOpacity": "80%",
	"sapMPlatformDependent": "false",
	"sapUiGlobalBackgroundVariant": "2",
	"sapUiGlobalLogo": "url('/sap/public/bc/themes/~client-100/~cache-1430447644591/Base/baseLib/custom_holcim_mobile/img/misc/sapCompanyLogo.png')",
	"sapUiGlobalLogoDefault": "none",
	"sapUiGlobalBackgroundRepeat": "true",
	"sapUiGlobalBackgroundImageOpacity": "1.0",
	"sapUiGlobalBackgroundImageOpacityDefault": "1",
	"sapUiGlobalBackgroundImageDefault": "none",
	"sapUiGlobalBackgroundImage": "none",
	"sapUiGlobalBackgroundColor": "#fff",
	"sapUiGlobalBackgroundColorDefault": "#f2f2f2",
	"sapUiGlobalBackgroundGradientStartColor": "#fff",
	"sapUiGlobalBackgroundGradientMiddleColor": "#fff",
	"sapUiGlobalBackgroundGradientEndColor": "#f2f2f2",
	"sapUiGlobalStrongBackgroundTextContrastColor": "none",
	"sapUiBackgroundImage": "none",
	"sapUiDesktopFontFamily": "Arial, Helvetica, sans-serif",
	"sapUiDesktopFontSize": "12px",
	"sapUiKeyboardFocus": "#c20d00",
	"sapUiChartLabelHoverColor": "#f0f0f0",
	"sapUiChartLabelPressedColor": "#ccc",
	"sapUiChartCategoryAxisLabelFontColor": "#333",
	"sapUiChartValueAxisLabelFontColor": "#333",
	"sapUiChartCategoryAxisLabelFontSize": "0.75rem",
	"sapUiChartValueAxisLabelFontSize": "0.75rem",
	"sapUiChartCategoryAxisLineColor": "#343434",
	"sapUiChartValueAxisLineColor": "#343434",
	"sapUiChartCategoryAxisTickColor": "#343434",
	"sapUiChartValueAxisTickColor": "#343434",
	"sapUiChartBackgroundColor": "#fff",
	"sapUiChartLabelFontWeight": "normal",
	"sapUiChartLegendLabelFontColor": "#000",
	"sapUiChartLegendTitleFontColor": "#000",
	"sapUiChartLegendTitleFontSize": "0.875rem",
	"sapUiChartLegendLabelFontSize": "0.75rem",
	"sapUiChartPaletteUndefinedColor": "#000",
	"sapUiChartGridlineColor": "#e5e5e5",
	"sapUiChartReferenceLineColor": "#343434",
	"sapUiChartDataLabelFontColor": "#000",
	"sapUiChartReferenceLineLabelColor": "#000",
	"sapUiChartDataLabelFontSize": "0.75rem",
	"sapUiChartPopoverDataItemFontColor": "#000",
	"sapUiChartPopoverGroupFontColor": "#000",
	"sapUiChartPopoverDataItemFontSize": "0.875rem",
	"sapUiChartPopoverGroupFontSize": "0.875rem",
	"sapUiChartPopoverGroupFontWeight": "bold",
	"sapUiChartScrollBarThumbColor": "#e6e6e6",
	"sapUiChartScrollBarTrackColor": "#e6e6e6",
	"sapUiChartScrollBarThumbHoverColor": "#e6e6e6",
	"sapUiChartMainTitleFontColor": "#333",
	"sapUiChartAxisTitleFontColor": "#000",
	"sapUiChartMainTitleFontSize": "1rem",
	"sapUiChartAxisTitleFontSize": "0.875rem",
	"sapUiChartTitleFontWeight": "bold",
	"sapUiChartPaletteQualitativeHue1": "#5cbae6",
	"sapUiChartPaletteQualitativeHue2": "#b6d957",
	"sapUiChartPaletteQualitativeHue3": "#fac364",
	"sapUiChartPaletteQualitativeHue4": "#8cd3ff",
	"sapUiChartPaletteQualitativeHue5": "#d998cb",
	"sapUiChartPaletteQualitativeHue6": "#f2d249",
	"sapUiChartPaletteQualitativeHue7": "#93b9c6",
	"sapUiChartPaletteQualitativeHue8": "#ccc5a8",
	"sapUiChartPaletteQualitativeHue9": "#52bacc",
	"sapUiChartPaletteQualitativeHue10": "#dbdb46",
	"sapUiChartPaletteQualitativeHue11": "#98aafb",
	"sapUiChartPaletteSemanticBadLight3": "#f09ca4",
	"sapUiChartPaletteSemanticBadLight2": "#e9707b",
	"sapUiChartPaletteSemanticBadLight1": "#e34352",
	"sapUiChartPaletteSemanticBad": "#d32030",
	"sapUiChartPaletteSemanticBadDark1": "#a71926",
	"sapUiChartPaletteSemanticBadDark2": "#911621",
	"sapUiChartPaletteSemanticCriticalLight3": "#f3ccab",
	"sapUiChartPaletteSemanticCriticalLight2": "#edb17e",
	"sapUiChartPaletteSemanticCriticalLight1": "#e79651",
	"sapUiChartPaletteSemanticCritical": "#e17b24",
	"sapUiChartPaletteSemanticCriticalDark1": "#b96319",
	"sapUiChartPaletteSemanticCriticalDark2": "#a25716",
	"sapUiChartPaletteSemanticGoodLight3": "#bedbba",
	"sapUiChartPaletteSemanticGoodLight2": "#9fca98",
	"sapUiChartPaletteSemanticGoodLight1": "#80b877",
	"sapUiChartPaletteSemanticGood": "#61a656",
	"sapUiChartPaletteSemanticGoodDark1": "#4d8445",
	"sapUiChartPaletteSemanticGoodDark2": "#44743c",
	"sapUiChartPaletteSemanticNeutralLight3": "#d6dadb",
	"sapUiChartPaletteSemanticNeutralLight2": "#bac1c4",
	"sapUiChartPaletteSemanticNeutralLight1": "#9ea8ad",
	"sapUiChartPaletteSemanticNeutral": "#848f94",
	"sapUiChartPaletteSemanticNeutralDark1": "#6a757b",
	"sapUiChartPaletteSemanticNeutralDark2": "#5e686e",
	"sapUiChartPaletteSequentialHue1Light3": "#abdbf2",
	"sapUiChartPaletteSequentialHue1Light2": "#84caec",
	"sapUiChartPaletteSequentialHue1Light1": "#5cbae5",
	"sapUiChartPaletteSequentialHue1": "#27a3dd",
	"sapUiChartPaletteSequentialHue1Dark1": "#1b7eac",
	"sapUiChartPaletteSequentialHue1Dark2": "#156489",
	"sapUiChartPaletteSequentialHue2Light3": "#d7eaa2",
	"sapUiChartPaletteSequentialHue2Light2": "#c6e17d",
	"sapUiChartPaletteSequentialHue2Light1": "#b6d957",
	"sapUiChartPaletteSequentialHue2": "#9dc62d",
	"sapUiChartPaletteSequentialHue2Dark1": "#759422",
	"sapUiChartPaletteSequentialHue2Dark2": "#5b731a",
	"sapUiChartPaletteSequentialHue3Light3": "#fde5bd",
	"sapUiChartPaletteSequentialHue3Light2": "#fbd491",
	"sapUiChartPaletteSequentialHue3Light1": "#fac364",
	"sapUiChartPaletteSequentialHue3": "#f8ac29",
	"sapUiChartPaletteSequentialHue3Dark1": "#dd8e07",
	"sapUiChartPaletteSequentialHue3Dark2": "#b57506",
	"sapUiChartPaletteSequentialNeutralLight3": "#d6dadb",
	"sapUiChartPaletteSequentialNeutralLight2": "#bac1c4",
	"sapUiChartPaletteSequentialNeutralLight1": "#9ea8ad",
	"sapUiChartPaletteSequentialNeutral": "#848f94",
	"sapUiChartPaletteSequentialNeutralDark1": "#6a757b",
	"sapUiChartPaletteSequentialNeutralDark2": "#5e686e",
	"sapUiUx3ShellGradientBottom": "transparent",
	"sapUiUx3ShellGradientTop": "rgba(255,55,0,0.03)",
	"sapUiNotificationBarBorder": "#676767",
	"sapUiUx3ToolPopupShadow": "0 0 30px rgba(0,0,0,0.2)",
	"sapUiCalloutShadow": "0 0 30px rgba(0,0,0,0.2)",
	"sapUiButtonLiteTextColor": "#00679e",
	"sapUiToggleButtonPressedBorderColor": "#e60f00",
	"sapUiToggleButtonPressedTextColor": "#fff",
	"sapUiToggleButtonPressedHoverBackground": "#e60f00",
	"sapUiToggleButtonPressedHoverBorderColor": "#e60f00",
	"sapUiToggleButtonPressedDisabledBorderColor": "#e60f00",
	"sapUiToggleButtonPressedDisabledTextColor": "#ccc",
	"sapUiFooterButtonHoverColor": "rgba(68,78,84,0.96)",
	"sapUiCalendarColorToday": "#ffc51c",
	"sapUiUx3ShellBackgroundImageURL": "none",
	"sapUiUx3ShellHeaderImageURL": "",
	"sapUiUx3ShellApplicationImageURL": "url('/sap/public/bc/themes/~client-100/~cache-1430447644608/Base/baseLib/custom_holcim_mobile/img/misc/sapCompanyLogo.png')",
	"sapUiActionSheetBG": "rgba(54,62,67,0.96)",
	"sapUiActionSheetOnDesktopBG": "rgba(54,62,67,0.96)",
	"sapUiActionSheetBorder": "#e5e5e5",
	"sapUiActionSheetButtonText": "#fff",
	"sapUiBarBG": "#f2f2f2",
	"sapUiBarBrandingBG": "#ff1100",
	"sapUiHeaderBG": "#f2f2f2",
	"sapUiSubHeaderBG": "#fcfcfc",
	"sapUiBarText": "#666",
	"sapUiFooterText": "#fff",
	"sapUiBarHeading": "#666",
	"sapUiBusy": "#ff1100",
	"sapUiBusyLight": "#fff",
	"sapUiBusyDlgSimpleIndicatorBG": "rgba(255,255,255,0.6)",
	"sapUiBusyDlgSimpleIndicatorBorder": "rgba(255,255,255,0.1)",
	"sapUiBtnText": "#333",
	"sapUiBtnTextActive": "#fff",
	"sapUiBtnTextLink": "#00679e",
	"sapUiBtnTextLinkDisabled": "rgba(0,103,158,0.5)",
	"sapUiBtnBaseRadius": "0.143rem",
	"sapUiBtnIcon": "#666",
	"sapUiBtnTextShadowDefault": "none",
	"sapUiBtnBorderDefault": "#bfbfbf",
	"sapUiBtnTextTransparentDisabled": "rgba(51,51,51,0.5)",
	"sapUiBtnIconHeader": "#666",
	"sapUiBtnTextHeader": "#666",
	"sapUiBtnTextHeaderDisabled": "#333",
	"sapUiBtnTextShadowHeader": "rgba(255,255,255,0.5)",
	"sapUiBtnTextFooterDisabled": "rgba(255,255,255,0.5)",
	"sapUiBtnTextShadowFooter": "rgba(0,0,0,0.5)",
	"sapUiBtnTextStandardDisabled": "rgba(51,51,51,0.5)",
	"sapUiBtnBGStandard": "#f7f7f7",
	"sapUiBtnBGStandardHover": "#eaeaea",
	"sapUiBtnBGStandardDown": "#ff1100",
	"sapUiBtnBGStandardDisabled": "#fafafa",
	"sapUiBtnTextPositiveDisabled": "rgba(255,255,255,0.5)",
	"sapUiBtnBGPositive": "#007833",
	"sapUiBtnBGPositiveBorder": "#005f28",
	"sapUiBtnBGPositiveHover": "#005f28",
	"sapUiBtnBGPositiveDown": "#00451d",
	"sapUiBtnBGPositiveDisabled": "rgba(0,120,51,0.5)",
	"sapUiBtnTextNegativeDisabled": "rgba(255,255,255,0.5)",
	"sapUiBtnBGNegative": "#cc1919",
	"sapUiBtnBGNegativeBorder": "#b51616",
	"sapUiBtnBGNegativeHover": "#b51616",
	"sapUiBtnBGNegativeDown": "#9f1313",
	"sapUiBtnBGNegativeDisabled": "rgba(204,25,25,0.5)",
	"sapUiBtnTextEmphasizedDisabled": "rgba(255,255,255,0.5)",
	"sapUiBtnBGEmphasized": "#ff1100",
	"sapUiBtnBGEmphasizedBorder": "#e60f00",
	"sapUiBtnBGEmphasizedHover": "#e60f00",
	"sapUiBtnBGEmphasizedDown": "#cc0e00",
	"sapUiBtnBGEmphasizedDisabled": "rgba(255,17,0,0.5)",
	"sapUiBtnTextShadowEmphasized": "rgba(0,0,0,0.5)",
	"sapUiBtnBGTransparent": "transparent",
	"sapUiBtnBGTransparentHover": "rgba(222,222,222,0.5)",
	"sapUiBtnBGTransparentDown": "#ff1100",
	"sapUiBtnFooterBGStandardHover": "rgba(234,234,234,0.1)",
	"sapUiBtnActionSelectBG": "rgba(54,62,67,0.96)",
	"sapUiBtnActionSelectBorderColor": "rgba(100,114,123,0.96)",
	"sapUiBtnActionSelectBGTransparentHover": "rgba(68,78,84,0.96)",
	"sapUiToggleBtnPressed": "#ff1100",
	"sapUiToggleBtnBorder": "#e60f00",
	"sapUiToggleBtnPressedHover": "#e60f00",
	"sapUiCheckBoxCheckedColor": "#ff1100",
	"sapUiCheckBoxUncheckedColor": "#c0c0c0",
	"sapUiCheckBoxFocusColor": "#c20d00",
	"sapUiDTICustomRows": "5",
	"sapUiDTICustomPhoneRows": "3",
	"sapUiDTICustomWidth": "64",
	"sapUiDTICustomHeight": "48",
	"sapUiDTICustomShowLabel": "false",
	"sapUiDTICustomHeaderText": "false",
	"sapUiDTICustomMode": "scroller",
	"sapUiDTICustomDesktopMode": "mixed",
	"sapUiDTICustomDisplay": "bubble",
	"sapUiDTICustomPhoneDisplay": "modal",
	"sapUiDTICustomFontFamily": "Arial, Helvetica, sans-serif",
	"sapUiDTICustomDialogBorder": "#9a9a9a",
	"sapUiDTICustomDialogWheelsBG": "none",
	"sapUiDTICustomDialogWheelBG": "none",
	"sapUiDTICustomArrowBG": "#fff",
	"sapUiDTICustomArrowColor": "#666",
	"sapUiDTICustomArrowHoverColor": "#ff1100",
	"sapUiDTICustomItemText": "#666",
	"sapUiDTICustomSelectedItemText": "#000",
	"sapUiDTICustomSelectedItemBG": "#ffe7e6",
	"sapUiDTICustomButtonBG": "rgba(54,62,67,0.96)",
	"sapUiDTICustomButtonOnDesktopBG": "rgba(54,62,67,0.96)",
	"sapUiDTICustomButtonHoverBG": "#ff1100",
	"sapUiDTICustomButtonText": "#fff",
	"sapUiDTICustomHeaderTextColor": "#666",
	"sapUiDTICustomHeaderTextShadow": "rgba(255,255,255,0.5)",
	"sapUiDTICustomHeaderBG": "#f2f2f2",
	"sapUiDTICustomFooterBG": "rgba(54,62,67,0.96)",
	"sapUiDTICustomFooterOnDesktopBG": "rgba(54,62,67,0.96)",
	"sapUiDTICustomHeaderBoxShadow": "#ddd",
	"sapUiITBTextOnlyBrandText": "#cc0e00",
	"sapUiInputBaseBG": "#fff",
	"sapUiInputBaseFont": "Arial, Helvetica, sans-serif",
	"sapUiInputBaseText": "#000",
	"sapUiInputBaseBorder": "#c0c0c0",
	"sapUiInputBaseFocus": "#ff1100",
	"sapUiInputBasePlaceholder": "#707070",
	"sapUiInputBaseWarning": "#f0ab00",
	"sapUiInputBaseWarningBG": "#fffcb5",
	"sapUiInputBaseError": "#e52929",
	"sapUiInputBaseErrorBG": "#fbdfdf",
	"sapUiInputBaseErrorFont": "#cc1919",
	"sapUiInputBaseSuccess": "#008a3b",
	"sapUiLabelText": "#666",
	"sapUiLabelFont": "Arial, Helvetica, sans-serif",
	"sapUiListBGHeader": "#ffe7e6",
	"sapUiListBGFooter": "#f7f7f7",
	"sapUiListHeaderText": "#666",
	"sapUiListFooterText": "#666",
	"sapUiListSingleSelectMasterAsActive": "false",
	"sapUiListHeaderBorder": "#ddd",
	"sapUiListTextColor": "#333",
	"sapUiGroupHeaderBG": "#f7f7f7",
	"sapUiListNoDataTextColor": "#333",
	"sapUiListTblBG": "rgba(255,255,255,0.8)",
	"sapUiListTblHeaderBorder": "#ddd",
	"sapUiListTblTextColor": "#333",
	"sapUiListTblPopinHeaderTextColor": "#666",
	"sapUiListTblPopinValueTextColor": "#000",
	"sapUiListTblPopinBG": "rgba(255,255,255,0.8)",
	"sapUiListTblPopinActiveBG": "#ff1100",
	"sapUiListTblPopinSelectedBG": "#ffe7e6",
	"sapUiListTblIconSize": "1rem",
	"sapUiListTblTextSize": "0.875rem",
	"sapUiLIBorder": "#e5e5e5",
	"sapUiLISelected": "#ffe7e6",
	"sapUiLIActive": "#ff1100",
	"sapUiLICounter": "#007cc0",
	"sapUiLIText": "#333",
	"sapUiLIStandardText": "#000",
	"sapUiLITextSec": "#666",
	"sapUiLITextInverted": "#fff",
	"sapUiLITextDisabled": "#666",
	"sapUiLIDelIcon": "true",
	"sapUiLIDelColor": "#cc1919",
	"sapUiLINavColor": "#8c8c8c",
	"sapUiLIDetailIcon": "true",
	"sapUiLIDetailColor": "#666",
	"sapUiLIDetailBGActive": "#ff1100",
	"sapUiLIUnreadAsBubble": "false",
	"sapUiALITextColor": "#fff",
	"sapUiMessageToastTextColor": "#fff",
	"sapUiMessageToastTextShadow": "#000",
	"sapUiPageBG": "#fff",
	"sapUiPanelBG": "#fff",
	"sapUiPopoverContBG": "#fff",
	"sapUiPopupBorderColor": "rgba(154,154,154,0.6)",
	"sapUiPopupBorder": "1px rgba(154,154,154,0.6) solid",
	"sapUiPopupBoxShadow": "0px 0px 30px 2px rgba(0,0,0,0.15)",
	"sapUiBlockLayerColor": "#000",
	"sapUiPopupButtonSeparator": "1px #000 solid",
	"sapUiPopupBorderRadius": "2px",
	"sapUiPullToRefreshText": "#666",
	"sapUiPullToRefreshArrow": "#ff1100",
	"sapUiPullToRefreshBG": "#f2f2f2",
	"sapUiRadioButtonSelectedColor": "#ff1100",
	"sapUiRadioButtonBorderColor": "#c0c0c0",
	"sapMUiScrollBarBG": "rgba(0,0,0,0.5)",
	"sapMUiScrollBarBorderColor": "#fff",
	"sapUiSegmentedBtnBG": "#fff",
	"sapUiSegmentedBtnBGSelected": "#ff1100",
	"sapUiSegmentedBtnBGSelectedHover": "#e60f00",
	"sapUiSegmentedBtnBGHover": "rgba(196,196,196,0.5)",
	"sapUiSegmentedBtnBGActive": "#ff1100",
	"sapUiSegmentedBtnBorder": "#dedede",
	"sapUiSegmentedBtnIconDark": "#666",
	"sapUiSegmentedBtnIconLight": "#fff",
	"sapUiSegmentedBtnText": "#00679e",
	"sapUiSegmentedBtnTextActive": "#fff",
	"sapUiSegmentedBtnTextFooter": "#fff",
	"sapUiSegmentedBtnFooterHover": "rgba(234,234,234,0.1)",
	"sapUiSegmentedBtnBorderFooter": "rgba(100,114,123,0.96)",
	"sapUiSelectBG": "#fff",
	"sapUiSelectBorderColor": "#c0c0c0",
	"sapUiSelectBorderColorPressed": "#ff1100",
	"sapUiSelectLabelTextColor": "#000",
	"sapUiSelectBGActive": "#ff1100",
	"sapUiSelectLabelTextColorPressed": "#fff",
	"sapUiSelectArrowColor": "#666",
	"sapUiSelectArrowColorActive": "#fff",
	"sapUiSelectArrowBGHover": "rgba(222,222,222,0.5)",
	"sapUiSelectArrowBGActive": "#ff1100",
	"sapUiSelectIconColor": "#666",
	"sapUiSelectIconColorActive": "#fff",
	"sapUiSelectIconBGHover": "#eaeaea",
	"sapUiSelectIconBGPressed": "#ff1100",
	"sapUiSelectIconBorderColor": "#c0c0c0",
	"sapUiSelectFooterBGHover": "rgba(234,234,234,0.1)",
	"sapUiSelectListActiveBG": "#ffe7e6",
	"sapUiSelectListLightestBGHover": "#f0f0f0",
	"sapUiSelectListLITextInverted": "#fff",
	"sapUiSelectListHighlight": "#ff1100",
	"sapUiSelectListMediumBorder": "#cdcdcd",
	"sapUiSelectListBorder": "#c0c0c0",
	"sapUiSelectListLightestBG": "#fff",
	"sapMShellContentBGOpacity": "30",
	"sapMShellContentBG": "rgba(255,255,255,0.3)",
	"sapUiSliderBG": "#ddd",
	"sapUiSliderProgressBG": "#ff1100",
	"sapUiSliderHandleBorder": "#9a9a9a",
	"sapUiSliderHandleBG": "rgba(154,154,154,0.3)",
	"sapUiSliderHandleBGHover": "rgba(154,154,154,0.6)",
	"sapUiSliderHandleBorderPressed": "#ff1100",
	"sapUiSliderHandleBGPressed": "rgba(255,17,0,0.3)",
	"sapUiSplitContainerMasterBG": "#fff",
	"sapUiSplitContainerMasterShadow": "1px 0 10px rgba(0,0,0,0.15)",
	"sapUiSplitContainerMasterBorder": "1px solid rgba(0, 0, 0, 0.15)",
	"sapUiSplitContainerMasterFooterSeperator": "rgba(100,114,123,0.96)",
	"sapUiSLIIconColor": "#666",
	"sapUiSLIIconColorActive": "#fff",
	"sapUiInfoTop": "false",
	"sapUiSwitchOnBG": "#ff1100",
	"sapUiSwitchOnHoverBG": "#e60f00",
	"sapUiSwitchOffBG": "#fff",
	"sapUiSwitchHandleOnBG": "#fff",
	"sapUiSwitchHandleOffBG": "#9a9a9a",
	"sapUiSwitchOnBorder": "#ff1100",
	"sapUiSwitchOffBorder": "#9a9a9a",
	"sapUiSwitchBorderColorHover": "#ff1100",
	"sapUiSwitchTextOn": "#fff",
	"sapUiSwitchTextOff": "#666",
	"sapUiSwitchAcceptRejectBG": "#fff",
	"sapUiRIIconPadding": "0.25rem",
	"sapUiRIIconColor": "#f0ab00",
	"sapUiToolbarBG": "rgba(229,229,229,0)",
	"sapUiToolbarSolidBG": "#e5e5e5",
	"sapUiToolbarBorder": "#cdcdcd",
	"sapUiToolbarInfoBG": "#457aae",
	"sapUiToolbarInfoHoverBG": "#2b68a3",
	"sapUiToolbarInfoActiveBG": "#125698",
	"sapUiToolbarInfoBorder": "#e5e5e5",
	"sapUiToolbarSeparatorBG": "#c0c0c0",
	"sapUiToolbarSeparatorFooterBG": "rgba(100,114,123,0.96)",
	"sapUiFeedInputBG": "#fff",
	"sapMeOverlapCalendarType00": "#e5e5e5",
	"sapMeOverlapCalendarType01": "#ffdbd9",
	"sapMeOverlapCalendarType01Action": "#cce8d8",
	"sapMeOverlapCalendarType04": "#ffdbd9",
	"sapMeOverlapCalendarType06": "#fae2a6",
	"sapMeOverlapCalendarType07": "#fceaea",
	"sapMeOverlapCalendarIndicator": "#f27020",
	"sapMeCalendarLegendIconCollapse": "collapse",
	"sapMeCalendarLegendIconExpand": "expand",
	"sapMeTabIconInfo": "hint",
	"sapMeTabColorInfo": "#f27020",
	"sapMeTabIconNotes": "notes",
	"sapMeTabColorNotes": "#ab218e",
	"sapMeTabIconAttachments": "attachment",
	"sapMeTabColorAttachments": "#007cc0",
	"sapMeTabIconPeople": "group",
	"sapMeTabColorPeople": "#004990"
}